More About Function Arguments
…
.huge-text[Familiar Option]

---

.larger[`across()`]

```r
penguins %>% 
  mutate(across(.cols = bill_length_mm:body_mass_g,
                .fns = standardize)
  )
```

```
## # A tibble: 344 x 8
##    species island    bill_length_mm bill_depth_mm flipper_length_mm body_mass_g
##    <fct>   <fct>              <dbl>         <dbl>             <dbl>       <dbl>
##  1 Adelie  Torgersen         -0.883         0.784            -1.42      -0.563 
##  2 Adelie  Torgersen         -0.810         0.126            -1.06      -0.501 
##  3 Adelie  Torgersen         -0.663         0.430            -0.421     -1.19  
##  4 Adelie  Torgersen         NA            NA                NA         NA     
##  5 Adelie  Torgersen         -1.32          1.09             -0.563     -0.937 
##  6 Adelie  Torgersen         -0.847         1.75             -0.776     -0.688 
##  7 Adelie  Torgersen         -0.920         0.329            -1.42      -0.719 
##  8 Adelie  Torgersen         -0.865         1.24             -0.421      0.590 
##  9 Adelie  Torgersen         -1.80          0.480            -0.563     -0.906 
## 10 Adelie  Torgersen         -0.352         1.54             -0.776      0.0602
## # ... with 334 more rows, and 2 more variables: sex <fct>, year <int>
```
…
.bitlarger[**Harder to read/use, but safe.**]

---

```r
stdize_column <- function(data, variable) {
  data[[variable]] <- standardize(data[[variable]])
  return(data)
}

stdize_column(penguins, "body_mass_g")
```

```
## # A tibble: 344 x 8
##    species island    bill_length_mm bill_depth_mm flipper_length_mm body_mass_g
##    <fct>   <fct>              <dbl>         <dbl>             <int>       <dbl>
##  1 Adelie  Torgersen           39.1          18.7               181     -0.563 
##  2 Adelie  Torgersen           39.5          17.4               186     -0.501 
##  3 Adelie  Torgersen           40.3          18                 195     -1.19  
##  4 Adelie  Torgersen           NA            NA                  NA     NA     
##  5 Adelie  Torgersen           36.7          19.3               193     -0.937 
##  6 Adelie  Torgersen           39.3          20.6               190     -0.688 
##  7 Adelie  Torgersen           38.9          17.8               181     -0.719 
##  8 Adelie  Torgersen           39.2          19.6               195      0.590 
##  9 Adelie  Torgersen           34.1          18.1               193     -0.906 
## 10 Adelie  Torgersen           42            20.2               190      0.0602
## # ... with 334 more rows, and 2 more variables: sex <fct>, year <int>
```
…
