Writing Functions to Work with Variables
…
<center>

.larger[`across()`]

</center>

```r
penguins %>% 
  mutate(across(.cols = bill_length_mm:body_mass_g,
                .fns = std_to_01)
  )
```

```
## # A tibble: 344 x 8
##    species island    bill_length_mm bill_depth_mm flipper_length_~
##    <fct>   <fct>              <dbl>         <dbl>            <dbl>
##  1 Adelie  Torgersen         0.255          0.667            0.153
##  2 Adelie  Torgersen         0.269          0.512            0.237
##  3 Adelie  Torgersen         0.298          0.583            0.390
##  4 Adelie  Torgersen        NA             NA               NA    
##  5 Adelie  Torgersen         0.167          0.738            0.356
##  6 Adelie  Torgersen         0.262          0.893            0.305
##  7 Adelie  Torgersen         0.247          0.560            0.153
##  8 Adelie  Torgersen         0.258          0.774            0.390
##  9 Adelie  Torgersen         0.0727         0.595            0.356
## 10 Adelie  Torgersen         0.36           0.845            0.305
## # ... with 334 more rows, and 3 more variables:
## #   body_mass_g <dbl>, sex <fct>, year <int>
```
…
```r
std_column_01 <- function(data, variable) {
  stopifnot(is.data.frame(data), 
            is.character(variable))
  
  data[[variable]] <- std_to_01(data[[variable]])
  return(data)
}

std_column_01(penguins, "bill_length_mm")
```

```
## # A tibble: 344 x 8
##    species island    bill_length_mm bill_depth_mm flipper_length_~
##    <fct>   <fct>              <dbl>         <dbl>            <int>
##  1 Adelie  Torgersen         0.255           18.7              181
##  2 Adelie  Torgersen         0.269           17.4              186
##  3 Adelie  Torgersen         0.298           18                195
##  4 Adelie  Torgersen        NA               NA                 NA
##  5 Adelie  Torgersen         0.167           19.3              193
##  6 Adelie  Torgersen         0.262           20.6              190
##  7 Adelie  Torgersen         0.247           17.8              181
##  8 Adelie  Torgersen         0.258           19.6              195
##  9 Adelie  Torgersen         0.0727          18.1              193
## 10 Adelie  Torgersen         0.36            20.2              190
## # ... with 334 more rows, and 3 more variables:
## #   body_mass_g <int>, sex <fct>, year <int>
```
…
