Getting Fancy – Arranging Some Data
…
---

# Ordering

Verb: `arrange()`

We **arrange** the dataset in order of a particular variable.

```r
arrange(cereals, calories)
```

```
## # A tibble: 77 x 16
##    name      mfr   type  calories protein   fat sodium fiber carbo sugars potass
##    <chr>     <fct> <fct>    <dbl>   <dbl> <dbl>  <dbl> <dbl> <dbl>  <dbl>  <dbl>
##  1 All-Bran… K     C           50       4     0    140    14     8      0    330
##  2 Puffed R… Q     C           50       1     0      0     0    13      0     15
##  3 Puffed W… Q     C           50       2     0      0     1    10      0     50
##  4 100% Bran N     C           70       4     1    130    10     5      6    280
##  5 All-Bran  K     C           70       4     1    260     9     7      5    320
##  6 Shredded… N     C           80       2     0      0     3    16      0     95
##  7 Bran Chex R     C           90       2     1    200     4    15      6    125
##  8 Bran Fla… P     C           90       3     0    210     5    13      5    190
##  9 Nutri-gr… K     C           90       3     0    170     3    18      2     90
## 10 Raisin S… K     C           90       2     0      0     2    15      6    110
## # … with 67 more rows, and 5 more variables: vitamins <dbl>, shelf <dbl>,
## #   weight <dbl>, cups <dbl>, rating <dbl>
```
…
---

.larger[Data Investigation]

```r
arrange(cereals, sugars, carbo)
```

```
## # A tibble: 77 x 16
##    name      mfr   type  calories protein   fat sodium fiber carbo sugars potass
##    <chr>     <fct> <fct>    <dbl>   <dbl> <dbl>  <dbl> <dbl> <dbl>  <dbl>  <dbl>
##  1 Quaker O… Q     H          100       5     2      0   2.7    -1     -1    110
##  2 All-Bran… K     C           50       4     0    140  14       8      0    330
##  3 Puffed W… Q     C           50       2     0      0   1      10      0     50
##  4 Puffed R… Q     C           50       1     0      0   0      13      0     15
##  5 Shredded… N     C           80       2     0      0   3      16      0     95
##  6 Shredded… N     C           90       3     0      0   4      19      0    140
##  7 Shredded… N     C           90       3     0      0   3      20      0    120
##  8 Cream of… N     H          100       3     0     80   1      21      0     -1
##  9 Cheerios  G     C          110       6     2    290   2      17      1    105
## 10 Nutri-gr… K     C           90       3     0    170   3      18      2     90
## # … with 67 more rows, and 5 more variables: vitamins <dbl>, shelf <dbl>,
## #   weight <dbl>, cups <dbl>, rating <dbl>
```
…
---

.larger[Checking our work]

```r
arrange(cereals, sugars)
```

```
## # A tibble: 77 x 16
##    name      mfr   type  calories protein   fat sodium fiber carbo sugars potass
##    <chr>     <fct> <fct>    <dbl>   <dbl> <dbl>  <dbl> <dbl> <dbl>  <dbl>  <dbl>
##  1 All-Bran… K     C           50       4     0    140    14     8      0    330
##  2 Cream of… N     H          100       3     0     80     1    21      0     NA
##  3 Puffed R… Q     C           50       1     0      0     0    13      0     15
##  4 Puffed W… Q     C           50       2     0      0     1    10      0     50
##  5 Shredded… N     C           80       2     0      0     3    16      0     95
##  6 Shredded… N     C           90       3     0      0     4    19      0    140
##  7 Shredded… N     C           90       3     0      0     3    20      0    120
##  8 Cheerios  G     C          110       6     2    290     2    17      1    105
##  9 Corn Fla… K     C          100       2     0    290     1    21      2     35
## 10 Nutri-gr… K     C           90       3     0    170     3    18      2     90
## # … with 67 more rows, and 5 more variables: vitamins <dbl>, shelf <dbl>,
## #   weight <dbl>, cups <dbl>, rating <dbl>
```
…
